{
  "files": {
    "main.css": "/static/css/main.ad000513.chunk.css",
    "main.js": "/static/js/main.f6a84a9d.chunk.js",
    "main.js.map": "/static/js/main.f6a84a9d.chunk.js.map",
    "runtime~main.js": "/static/js/runtime~main.a8a9905a.js",
    "runtime~main.js.map": "/static/js/runtime~main.a8a9905a.js.map",
    "static/js/2.797c941b.chunk.js": "/static/js/2.797c941b.chunk.js",
    "static/js/2.797c941b.chunk.js.map": "/static/js/2.797c941b.chunk.js.map",
    "index.html": "/index.html",
    "precache-manifest.d7eb62dffc5709a84d39c930e18b3528.js": "/precache-manifest.d7eb62dffc5709a84d39c930e18b3528.js",
    "service-worker.js": "/service-worker.js",
    "static/css/main.ad000513.chunk.css.map": "/static/css/main.ad000513.chunk.css.map"
  }
}